<?xml version="1.0" encoding="UTF-8" standalone="no"?>
<!-- Created with Inkscape (http://www.inkscape.org/) -->

<svg
   xmlns:dc="http://purl.org/dc/elements/1.1/"
   xmlns:cc="http://creativecommons.org/ns#"
   xmlns:rdf="http://www.w3.org/1999/02/22-rdf-syntax-ns#"
   xmlns:svg="http://www.w3.org/2000/svg"
   xmlns="http://www.w3.org/2000/svg"
   xmlns:sodipodi="http://sodipodi.sourceforge.net/DTD/sodipodi-0.dtd"
   xmlns:inkscape="http://www.inkscape.org/namespaces/inkscape"
   width="282.22223mm"
   height="282.22223mm"
   viewBox="0 0 1000 1000"
   id="svg9607"
   version="1.1"
   inkscape:version="0.48.4 r9939"
   sodipodi:docname="face.svg">
  <defs
     id="defs9609" />
  <sodipodi:namedview
     id="base"
     pagecolor="#ffffff"
     bordercolor="#666666"
     borderopacity="1.0"
     inkscape:pageopacity="0.0"
     inkscape:pageshadow="2"
     inkscape:zoom="0.7"
     inkscape:cx="-91.094479"
     inkscape:cy="530.02687"
     inkscape:document-units="px"
     inkscape:current-layer="layer1"
     showgrid="false"
     fit-margin-top="0"
     fit-margin-left="0"
     fit-margin-right="0"
     fit-margin-bottom="0"
     inkscape:window-width="1920"
     inkscape:window-height="1028"
     inkscape:window-x="1280"
     inkscape:window-y="24"
     inkscape:window-maximized="1" />
  <metadata
     id="metadata9612">
    <rdf:RDF>
      <cc:Work
         rdf:about="">
        <dc:format>image/svg+xml</dc:format>
        <dc:type
           rdf:resource="http://purl.org/dc/dcmitype/StillImage" />
        <dc:title />
      </cc:Work>
    </rdf:RDF>
  </metadata>
  <g
     inkscape:label="Layer 1"
     inkscape:groupmode="layer"
     id="layer1"
     transform="translate(-616.59052,664.22827)">
    <circle
       sodipodi:ry="65.266655"
       sodipodi:rx="65.266655"
       sodipodi:cy="324.36865"
       sodipodi:cx="940.96454"
       d="m 1006.2312,324.36865 c 0,36.04578 -29.22088,65.26666 -65.26666,65.26666 -36.04578,0 -65.26666,-29.22088 -65.26666,-65.26666 0,-36.04578 29.22088,-65.26665 65.26666,-65.26665 36.04578,0 65.26666,29.22087 65.26666,65.26665 z"
       cy="324.36865"
       cx="940.96454"
       r="65.266655"
       id="circle6096"
       style="fill:#f0f0f0;fill-opacity:1;stroke:#505050;stroke-width:2;stroke-miterlimit:4;stroke-opacity:1;stroke-dasharray:none"
       transform="matrix(7.545273,0,0,7.545273,-5983.2438,-2611.6783)" />
    <ellipse
       sodipodi:ry="13.053329"
       sodipodi:rx="8.1583309"
       sodipodi:cy="301.52533"
       sodipodi:cx="921.38452"
       d="m 929.54285,301.52533 c 0,7.20915 -3.65261,13.05333 -8.15833,13.05333 -4.50572,0 -8.15833,-5.84418 -8.15833,-13.05333 0,-7.20916 3.65261,-13.05333 8.15833,-13.05333 4.50572,0 8.15833,5.84417 8.15833,13.05333 z"
       id="ellipse6101"
       cy="301.52533"
       cx="921.38452"
       ry="13.053329"
       rx="8.1583309"
       style="fill:#464646;fill-opacity:1"
       transform="matrix(7.545273,0,0,7.545273,-5983.2438,-2611.6783)" />
    <ellipse
       sodipodi:ry="13.053329"
       sodipodi:rx="8.1583309"
       sodipodi:cy="301.52533"
       sodipodi:cx="-960.54449"
       d="m -952.38616,301.52533 c 0,7.20915 -3.65261,13.05333 -8.15833,13.05333 -4.50573,0 -8.15834,-5.84418 -8.15834,-13.05333 0,-7.20916 3.65261,-13.05333 8.15834,-13.05333 4.50572,0 8.15833,5.84417 8.15833,13.05333 z"
       style="fill:#464646;fill-opacity:1"
       rx="8.1583309"
       ry="13.053329"
       cx="-960.54449"
       cy="301.52533"
       id="ellipse6173"
       transform="matrix(-7.545273,0,0,7.545273,-5983.2438,-2611.6783)" />
    <path
       style="fill:none;stroke:#464646;stroke-width:18.46705054999999973;stroke-opacity:1"
       inkscape:connector-curvature="0"
       d="m 821.11757,-41.114403 a 332.40691,332.40691 0 0 0 590.94563,0 320.09555,320.09555 0 0 1 -590.94563,0"
       id="path6107" />
  </g>
</svg>
